[
  {
    "field": "salutation",
    "label": "Herr",
    "value": "1"
  },
  {
    "field": "salutation",
    "label": "Frau",
    "value": "2"
  },
  {
    "field": "salutation",
    "label": "Herr/Frau",
    "value": "3"
  },
  {
    "field": "gender",
    "label": "Gesamt",
    "value": "1"
  },
  {
    "field": "gender",
    "label": "Männer",
    "value": "2"
  },
  {
    "field": "gender",
    "label": "Frauen",
    "value": "3"
  },
  {
    "field": "branche",
    "label": "gesamt",
    "value": "1"
  },
  {
    "field": "branche",
    "label": "Land- und Forstwirtschaft, Fischerei",
    "value": "2"
  },
  {
    "field": "branche",
    "label": "produzierendes Gewerbe ohne Bau",
    "value": "3"
  },
  {
    "field": "branche",
    "label": "Baugewerbe",
    "value": "4"
  },
  {
    "field": "branche",
    "label": "Handel, Verkehr, Lagerei und Gastgewerbe",
    "value": "5"
  },
  {
    "field": "branche",
    "label": "Information und Kommunikation",
    "value": "6"
  },
  {
    "field": "branche",
    "label": "Finanz- und Versicherungsgewerbe",
    "value": "7"
  },
  {
    "field": "branche",
    "label": "Grundstücks- und Wohnungswesen",
    "value": "8"
  },
  {
    "field": "branche",
    "label": "Erbringung wirtschaftl. Dienstleistungen",
    "value": "9"
  },
  {
    "field": "branche",
    "label": "Öff. Verw., Schul-, Gesundh.-, Soz.wesen",
    "value": "10"
  },
  {
    "field": "branche",
    "label": "Sonstige Dienstleistungen",
    "value": "11"
  },
  {
    "field": "ageCategory",
    "label": "Gesamt",
    "value": "1"
  },
  {
    "field": "ageCategory",
    "label": "unter 25",
    "value": "2"
  },
  {
    "field": "ageCategory",
    "label": "25 bis unter 55",
    "value": "3"
  },
  {
    "field": "ageCategory",
    "label": "ab 55",
    "value": "4"
  },
  {
    "field": "performanceLevel",
    "label": "Helfer",
    "value": "1"
  },
  {
    "field": "performanceLevel",
    "label": "Fachkraft",
    "value": "2"
  },
  {
    "field": "performanceLevel",
    "label": "Spezialist",
    "value": "3"
  },
  {
    "field": "performanceLevel",
    "label": "Experte",
    "value": "4"
  }
]
