{
  "kind": "collectionType",
  "collectionName": "bfa_kategorie",
  "info": {
    "singularName": "bfa-kategorie",
    "pluralName": "bfa-kategorien",
    "displayName": "BfA Kategorien",
    "description": "Kategorien der Bundesagentur für Arbeit"
  },
  "options": {
    "draftAndPublish": false
  },
  "attributes": {
    "createdBy": {
      "type": "relation",
      "relation": "oneToOne",
      "target": "admin::user",
      "configurable": false,
      "writable": false,
      "visible": false,
      "useJoinTable": false,
      "private": true,
      "targetModel": "admin::user",
      "relationType": "oneToOne"
    },
    "updatedBy": {
      "type": "relation",
      "relation": "oneToOne",
      "target": "admin::user",
      "configurable": false,
      "writable": false,
      "visible": false,
      "useJoinTable": false,
      "private": true,
      "targetModel": "admin::user",
      "relationType": "oneToOne"
    },
    "createdAt": {
      "type": "datetime"
    },
    "updatedAt": {
      "type": "datetime"
    },
    "field": {
      "type": "string",
      "required": true
    },
    "label": {
      "type": "string"
    },
    "value": {
      "type": "string"
    },
    "order": {
      "type": "string"
    },
    "anonymized": {
      "type": "boolean"
    }
  }
}
